[
    {
        "%vlocity_namespace%__DomainObjectAPIName__c": "json",
        "%vlocity_namespace%__DomainObjectCreationOrder__c": 0,
        "%vlocity_namespace%__DomainObjectFieldAPIName__c": "PaymentAPS__c",
        "%vlocity_namespace%__FilterGroup__c": 0,
        "%vlocity_namespace%__FilterOperator__c": "=",
        "%vlocity_namespace%__FilterValue__c": "Id",
        "%vlocity_namespace%__InterfaceFieldAPIName__c": "Id",
        "%vlocity_namespace%__InterfaceObjectLookupOrder__c": 1,
        "%vlocity_namespace%__InterfaceObjectName__c": "PaymentAPS__c",
        "%vlocity_namespace%__IsDisabled__c": false,
        "%vlocity_namespace%__IsRequiredForUpsert__c": false,
        "%vlocity_namespace%__MapId__c": "cc2020-DR-EditRecurringPayment-KubraCustom4603",
        "%vlocity_namespace%__UpsertKey__c": false,
        "Name": "cc2020-DR-EditRecurringPayment-Kubra",
        "VlocityDataPackType": "SObject",
        "VlocityRecordSObjectType": "%vlocity_namespace%__DRMapItem__c"
    },
    {
        "%vlocity_namespace%__DomainObjectAPIName__c": "json",
        "%vlocity_namespace%__DomainObjectCreationOrder__c": 1,
        "%vlocity_namespace%__DomainObjectFieldAPIName__c": "RecurringPaymentKubra:AccountId",
        "%vlocity_namespace%__InterfaceFieldAPIName__c": "PaymentAPS__c:Account_Id__c",
        "%vlocity_namespace%__IsDisabled__c": false,
        "%vlocity_namespace%__IsRequiredForUpsert__c": false,
        "%vlocity_namespace%__MapId__c": "cc2020-DR-EditRecurringPayment-KubraCustom8842",
        "%vlocity_namespace%__UpsertKey__c": false,
        "Name": "cc2020-DR-EditRecurringPayment-Kubra",
        "VlocityDataPackType": "SObject",
        "VlocityRecordSObjectType": "%vlocity_namespace%__DRMapItem__c"
    },
    {
        "%vlocity_namespace%__DomainObjectAPIName__c": "json",
        "%vlocity_namespace%__DomainObjectCreationOrder__c": 1,
        "%vlocity_namespace%__DomainObjectFieldAPIName__c": "RecurringPaymentKubra:Cancelbillpayment:Amount",
        "%vlocity_namespace%__DomainObjectFieldType__c": "Currency",
        "%vlocity_namespace%__InterfaceFieldAPIName__c": "PaymentAPS__c:Amount__c",
        "%vlocity_namespace%__IsDisabled__c": false,
        "%vlocity_namespace%__IsRequiredForUpsert__c": false,
        "%vlocity_namespace%__MapId__c": "cc2020-DR-EditRecurringPayment-KubraCustom3761",
        "%vlocity_namespace%__UpsertKey__c": false,
        "Name": "cc2020-DR-EditRecurringPayment-Kubra",
        "VlocityDataPackType": "SObject",
        "VlocityRecordSObjectType": "%vlocity_namespace%__DRMapItem__c"
    },
    {
        "%vlocity_namespace%__DomainObjectAPIName__c": "json",
        "%vlocity_namespace%__DomainObjectCreationOrder__c": 1,
        "%vlocity_namespace%__DomainObjectFieldAPIName__c": "RecurringPaymentKubra:Cancelbillpayment:BiillID",
        "%vlocity_namespace%__InterfaceFieldAPIName__c": "PaymentAPS__c:BiillID__c",
        "%vlocity_namespace%__IsDisabled__c": false,
        "%vlocity_namespace%__IsRequiredForUpsert__c": false,
        "%vlocity_namespace%__MapId__c": "cc2020-DR-EditRecurringPayment-KubraCustom7931",
        "%vlocity_namespace%__UpsertKey__c": false,
        "Name": "cc2020-DR-EditRecurringPayment-Kubra",
        "VlocityDataPackType": "SObject",
        "VlocityRecordSObjectType": "%vlocity_namespace%__DRMapItem__c"
    },
    {
        "%vlocity_namespace%__DomainObjectAPIName__c": "json",
        "%vlocity_namespace%__DomainObjectCreationOrder__c": 1,
        "%vlocity_namespace%__DomainObjectFieldAPIName__c": "RecurringPaymentKubra:Cancelbillpayment:BillDate",
        "%vlocity_namespace%__InterfaceFieldAPIName__c": "PaymentAPS__c:Bill_Date__c",
        "%vlocity_namespace%__IsDisabled__c": false,
        "%vlocity_namespace%__IsRequiredForUpsert__c": false,
        "%vlocity_namespace%__MapId__c": "cc2020-DR-EditRecurringPayment-KubraCustom5576",
        "%vlocity_namespace%__UpsertKey__c": false,
        "Name": "cc2020-DR-EditRecurringPayment-Kubra",
        "VlocityDataPackType": "SObject",
        "VlocityRecordSObjectType": "%vlocity_namespace%__DRMapItem__c"
    },
    {
        "%vlocity_namespace%__DomainObjectAPIName__c": "json",
        "%vlocity_namespace%__DomainObjectCreationOrder__c": 1,
        "%vlocity_namespace%__DomainObjectFieldAPIName__c": "RecurringPaymentKubra:Cancelbillpayment:DueDate",
        "%vlocity_namespace%__InterfaceFieldAPIName__c": "PaymentAPS__c:Due_Date__c",
        "%vlocity_namespace%__IsDisabled__c": false,
        "%vlocity_namespace%__IsRequiredForUpsert__c": false,
        "%vlocity_namespace%__MapId__c": "cc2020-DR-EditRecurringPayment-KubraCustom3928",
        "%vlocity_namespace%__UpsertKey__c": false,
        "Name": "cc2020-DR-EditRecurringPayment-Kubra",
        "VlocityDataPackType": "SObject",
        "VlocityRecordSObjectType": "%vlocity_namespace%__DRMapItem__c"
    },
    {
        "%vlocity_namespace%__DomainObjectAPIName__c": "json",
        "%vlocity_namespace%__DomainObjectCreationOrder__c": 1,
        "%vlocity_namespace%__DomainObjectFieldAPIName__c": "RecurringPaymentKubra:Enddate",
        "%vlocity_namespace%__InterfaceFieldAPIName__c": "PaymentAPS__c:End_Date__c",
        "%vlocity_namespace%__IsDisabled__c": false,
        "%vlocity_namespace%__IsRequiredForUpsert__c": false,
        "%vlocity_namespace%__MapId__c": "cc2020-DR-EditRecurringPayment-KubraCustom4337",
        "%vlocity_namespace%__UpsertKey__c": false,
        "Name": "cc2020-DR-EditRecurringPayment-Kubra",
        "VlocityDataPackType": "SObject",
        "VlocityRecordSObjectType": "%vlocity_namespace%__DRMapItem__c"
    },
    {
        "%vlocity_namespace%__DomainObjectAPIName__c": "json",
        "%vlocity_namespace%__DomainObjectCreationOrder__c": 1,
        "%vlocity_namespace%__DomainObjectFieldAPIName__c": "RecurringPaymentKubra:PayDate",
        "%vlocity_namespace%__InterfaceFieldAPIName__c": "PaymentAPS__c:PayDate__c",
        "%vlocity_namespace%__IsDisabled__c": false,
        "%vlocity_namespace%__IsRequiredForUpsert__c": false,
        "%vlocity_namespace%__MapId__c": "cc2020-DR-EditRecurringPayment-KubraCustom1695",
        "%vlocity_namespace%__UpsertKey__c": false,
        "Name": "cc2020-DR-EditRecurringPayment-Kubra",
        "VlocityDataPackType": "SObject",
        "VlocityRecordSObjectType": "%vlocity_namespace%__DRMapItem__c"
    },
    {
        "%vlocity_namespace%__DomainObjectAPIName__c": "json",
        "%vlocity_namespace%__DomainObjectCreationOrder__c": 1,
        "%vlocity_namespace%__DomainObjectFieldAPIName__c": "RecurringPaymentKubra:Previouscancellationhistory:Amount",
        "%vlocity_namespace%__DomainObjectFieldType__c": "Currency",
        "%vlocity_namespace%__InterfaceFieldAPIName__c": "PaymentAPS__c:Amount__c",
        "%vlocity_namespace%__IsDisabled__c": false,
        "%vlocity_namespace%__IsRequiredForUpsert__c": false,
        "%vlocity_namespace%__MapId__c": "cc2020-DR-EditRecurringPayment-KubraCustom177",
        "%vlocity_namespace%__UpsertKey__c": false,
        "Name": "cc2020-DR-EditRecurringPayment-Kubra",
        "VlocityDataPackType": "SObject",
        "VlocityRecordSObjectType": "%vlocity_namespace%__DRMapItem__c"
    },
    {
        "%vlocity_namespace%__DomainObjectAPIName__c": "json",
        "%vlocity_namespace%__DomainObjectCreationOrder__c": 1,
        "%vlocity_namespace%__DomainObjectFieldAPIName__c": "RecurringPaymentKubra:Previouscancellationhistory:BillDate",
        "%vlocity_namespace%__InterfaceFieldAPIName__c": "PaymentAPS__c:Bill_Date__c",
        "%vlocity_namespace%__IsDisabled__c": false,
        "%vlocity_namespace%__IsRequiredForUpsert__c": false,
        "%vlocity_namespace%__MapId__c": "cc2020-DR-EditRecurringPayment-KubraCustom9800",
        "%vlocity_namespace%__UpsertKey__c": false,
        "Name": "cc2020-DR-EditRecurringPayment-Kubra",
        "VlocityDataPackType": "SObject",
        "VlocityRecordSObjectType": "%vlocity_namespace%__DRMapItem__c"
    },
    {
        "%vlocity_namespace%__DomainObjectAPIName__c": "json",
        "%vlocity_namespace%__DomainObjectCreationOrder__c": 1,
        "%vlocity_namespace%__DomainObjectFieldAPIName__c": "RecurringPaymentKubra:Previouscancellationhistory:CancelledBillID",
        "%vlocity_namespace%__InterfaceFieldAPIName__c": "PaymentAPS__c:Cancelled_Bill_ID__c",
        "%vlocity_namespace%__IsDisabled__c": false,
        "%vlocity_namespace%__IsRequiredForUpsert__c": false,
        "%vlocity_namespace%__MapId__c": "cc2020-DR-EditRecurringPayment-KubraCustom1461",
        "%vlocity_namespace%__UpsertKey__c": false,
        "Name": "cc2020-DR-EditRecurringPayment-Kubra",
        "VlocityDataPackType": "SObject",
        "VlocityRecordSObjectType": "%vlocity_namespace%__DRMapItem__c"
    },
    {
        "%vlocity_namespace%__DomainObjectAPIName__c": "json",
        "%vlocity_namespace%__DomainObjectCreationOrder__c": 1,
        "%vlocity_namespace%__DomainObjectFieldAPIName__c": "RecurringPaymentKubra:Startdate",
        "%vlocity_namespace%__InterfaceFieldAPIName__c": "PaymentAPS__c:start_date__c",
        "%vlocity_namespace%__IsDisabled__c": false,
        "%vlocity_namespace%__IsRequiredForUpsert__c": false,
        "%vlocity_namespace%__MapId__c": "cc2020-DR-EditRecurringPayment-KubraCustom9063",
        "%vlocity_namespace%__UpsertKey__c": false,
        "Name": "cc2020-DR-EditRecurringPayment-Kubra",
        "VlocityDataPackType": "SObject",
        "VlocityRecordSObjectType": "%vlocity_namespace%__DRMapItem__c"
    },
    {
        "%vlocity_namespace%__DomainObjectAPIName__c": "json",
        "%vlocity_namespace%__DomainObjectCreationOrder__c": 1,
        "%vlocity_namespace%__DomainObjectFieldAPIName__c": "RecurringPaymentKubra:Status",
        "%vlocity_namespace%__DomainObjectFieldType__c": "String",
        "%vlocity_namespace%__InterfaceFieldAPIName__c": "PaymentAPS__c:Status__c",
        "%vlocity_namespace%__IsDisabled__c": false,
        "%vlocity_namespace%__IsRequiredForUpsert__c": false,
        "%vlocity_namespace%__MapId__c": "cc2020-DR-EditRecurringPayment-KubraCustom5495",
        "%vlocity_namespace%__UpsertKey__c": false,
        "Name": "cc2020-DR-EditRecurringPayment-Kubra",
        "VlocityDataPackType": "SObject",
        "VlocityRecordSObjectType": "%vlocity_namespace%__DRMapItem__c"
    },
    {
        "%vlocity_namespace%__DomainObjectAPIName__c": "json",
        "%vlocity_namespace%__DomainObjectCreationOrder__c": 1,
        "%vlocity_namespace%__DomainObjectFieldAPIName__c": "RecurringPaymentKubra:Thresholdamount",
        "%vlocity_namespace%__InterfaceFieldAPIName__c": "PaymentAPS__c:Threshold_Amount__c",
        "%vlocity_namespace%__IsDisabled__c": false,
        "%vlocity_namespace%__IsRequiredForUpsert__c": false,
        "%vlocity_namespace%__MapId__c": "cc2020-DR-EditRecurringPayment-KubraCustom5809",
        "%vlocity_namespace%__UpsertKey__c": false,
        "Name": "cc2020-DR-EditRecurringPayment-Kubra",
        "VlocityDataPackType": "SObject",
        "VlocityRecordSObjectType": "%vlocity_namespace%__DRMapItem__c"
    }
]