{
    "ContextId": "001m000000crJs7",
    "ViewAccount": {
        "securityInfoBlock": {
            "password": "12345",
            "securityAnswer": "pune",
            "securityQuestion": "The city I was born in?"
        },
        "viewAccountBlock": {
            "AccessGroup": "Test Access Group",
            "AccountName": "Acme",
            "BillAfterDate": "2018-04-23",
            "BillCycle": "Monthly - B Serial",
            "BillPrintIntercept": "Test Bill Print Intercept",
            "CISDevision": "PG&E",
            "Currency Code": "United State Dollars",
            "CustomerClass": "Residential",
            "ManagementGroup": "Test Management Group",
            "ProtectBillCycle": true,
            "ProtectCisDevision": true,
            "ProtectMailingPremise": true,
            "ShippingAddress": null,
            "accountComments": null,
            "accountId": "1234",
            "mailingPremiseId": "a2rm0000000EIgRAAW",
            "setupDate": "2018-04-22T18:30:00.000Z"
        },
        "viewAccountDetails": {
            "AccessGroup": null,
            "BillAfterDate": null,
            "BillPrintIntercept": null,
            "Currency Code": null,
            "ProtectCisDevision": false,
            "ProtectMailingPremise": false
        }
    },
    "id": "a2Fm0000000KZ6oEAG",
    "layout": "lightning",
    "timeStamp": "2018-06-01T07:35:34.997Z",
    "userCurrencyCode": "USD",
    "userId": "005m0000002xAkGAAU",
    "userName": "gauri2.gaikwad2@pge.com.cc2020.dev",
    "userProfile": "System Administrator",
    "userTimeZone": -420,
    "vlcPersistentComponent": {
    },
    "vlcTimeTracking": {
        "Account Script Constant": 232,
        "OmniScriptSessionToken": "190135ad-9a72-45a3-8712-7b079055ac1b",
        "ViewUpdateAccountInfo": 2578
    }
}