[
    {
        "%vlocity_namespace%__DomainObjectAPIName__c": "json",
        "%vlocity_namespace%__DomainObjectCreationOrder__c": 0,
        "%vlocity_namespace%__DomainObjectFieldAPIName__c": "Account",
        "%vlocity_namespace%__FilterGroup__c": 0,
        "%vlocity_namespace%__FilterOperator__c": "=",
        "%vlocity_namespace%__FilterValue__c": "Id",
        "%vlocity_namespace%__InterfaceFieldAPIName__c": "Id",
        "%vlocity_namespace%__InterfaceObjectLookupOrder__c": 1,
        "%vlocity_namespace%__InterfaceObjectName__c": "Account",
        "%vlocity_namespace%__IsDisabled__c": false,
        "%vlocity_namespace%__IsRequiredForUpsert__c": false,
        "%vlocity_namespace%__MapId__c": "TestDRPrefillAccountInformationCustoma1Am0000001pr1eEAAItem0",
        "%vlocity_namespace%__UpsertKey__c": false,
        "Name": "TestDRPrefillAccountInformation",
        "VlocityDataPackType": "SObject",
        "VlocityRecordSObjectType": "%vlocity_namespace%__DRMapItem__c"
    },
    {
        "%vlocity_namespace%__DomainObjectAPIName__c": "json",
        "%vlocity_namespace%__DomainObjectCreationOrder__c": 1,
        "%vlocity_namespace%__DomainObjectFieldAPIName__c": "ContextId",
        "%vlocity_namespace%__IsDisabled__c": false,
        "%vlocity_namespace%__IsRequiredForUpsert__c": false,
        "%vlocity_namespace%__MapId__c": "TestDRPrefillAccountInformationCustoma1Am0000001pr1eEAAItem1",
        "%vlocity_namespace%__UpsertKey__c": false,
        "Name": "TestDRPrefillAccountInformation",
        "VlocityDataPackType": "SObject",
        "VlocityRecordSObjectType": "%vlocity_namespace%__DRMapItem__c"
    },
    {
        "%vlocity_namespace%__DomainObjectAPIName__c": "json",
        "%vlocity_namespace%__DomainObjectCreationOrder__c": 1,
        "%vlocity_namespace%__DomainObjectFieldAPIName__c": "ViewAccount:securityInfoBlock:password",
        "%vlocity_namespace%__InterfaceFieldAPIName__c": "Account:Password__c",
        "%vlocity_namespace%__IsDisabled__c": false,
        "%vlocity_namespace%__IsRequiredForUpsert__c": false,
        "%vlocity_namespace%__MapId__c": "TestDRPrefillAccountInformationCustoma1Am0000001pr1eEAAItem32",
        "%vlocity_namespace%__UpsertKey__c": false,
        "Name": "TestDRPrefillAccountInformation",
        "VlocityDataPackType": "SObject",
        "VlocityRecordSObjectType": "%vlocity_namespace%__DRMapItem__c"
    },
    {
        "%vlocity_namespace%__DomainObjectAPIName__c": "json",
        "%vlocity_namespace%__DomainObjectCreationOrder__c": 1,
        "%vlocity_namespace%__DomainObjectFieldAPIName__c": "ViewAccount:securityInfoBlock:securityAnswer",
        "%vlocity_namespace%__InterfaceFieldAPIName__c": "Account:Security_Answer__c",
        "%vlocity_namespace%__IsDisabled__c": false,
        "%vlocity_namespace%__IsRequiredForUpsert__c": false,
        "%vlocity_namespace%__MapId__c": "TestDRPrefillAccountInformationCustoma1Am0000001pr1eEAAItem36",
        "%vlocity_namespace%__UpsertKey__c": false,
        "Name": "TestDRPrefillAccountInformation",
        "VlocityDataPackType": "SObject",
        "VlocityRecordSObjectType": "%vlocity_namespace%__DRMapItem__c"
    },
    {
        "%vlocity_namespace%__DomainObjectAPIName__c": "json",
        "%vlocity_namespace%__DomainObjectCreationOrder__c": 1,
        "%vlocity_namespace%__DomainObjectFieldAPIName__c": "ViewAccount:securityInfoBlock:securityQuestion",
        "%vlocity_namespace%__InterfaceFieldAPIName__c": "Account:Security_Question__c",
        "%vlocity_namespace%__IsDisabled__c": false,
        "%vlocity_namespace%__IsRequiredForUpsert__c": false,
        "%vlocity_namespace%__MapId__c": "TestDRPrefillAccountInformationCustoma1Am0000001pr1eEAAItem37",
        "%vlocity_namespace%__UpsertKey__c": false,
        "Name": "TestDRPrefillAccountInformation",
        "VlocityDataPackType": "SObject",
        "VlocityRecordSObjectType": "%vlocity_namespace%__DRMapItem__c"
    },
    {
        "%vlocity_namespace%__DomainObjectAPIName__c": "json",
        "%vlocity_namespace%__DomainObjectCreationOrder__c": 1,
        "%vlocity_namespace%__DomainObjectFieldAPIName__c": "ViewAccount:viewAccountBlock:AccessGroup",
        "%vlocity_namespace%__InterfaceFieldAPIName__c": "Account:Access_Group__c",
        "%vlocity_namespace%__IsDisabled__c": false,
        "%vlocity_namespace%__IsRequiredForUpsert__c": false,
        "%vlocity_namespace%__MapId__c": "TestDRPrefillAccountInformationCustoma1Am0000001pr1eEAAItem20",
        "%vlocity_namespace%__UpsertKey__c": false,
        "Name": "TestDRPrefillAccountInformation",
        "VlocityDataPackType": "SObject",
        "VlocityRecordSObjectType": "%vlocity_namespace%__DRMapItem__c"
    },
    {
        "%vlocity_namespace%__DomainObjectAPIName__c": "json",
        "%vlocity_namespace%__DomainObjectCreationOrder__c": 1,
        "%vlocity_namespace%__DomainObjectFieldAPIName__c": "ViewAccount:viewAccountBlock:AccountName",
        "%vlocity_namespace%__InterfaceFieldAPIName__c": "Account:Name",
        "%vlocity_namespace%__IsDisabled__c": false,
        "%vlocity_namespace%__IsRequiredForUpsert__c": false,
        "%vlocity_namespace%__MapId__c": "TestDRPrefillAccountInformationCustoma1Am0000001pr1eEAAItem31",
        "%vlocity_namespace%__UpsertKey__c": false,
        "Name": "TestDRPrefillAccountInformation",
        "VlocityDataPackType": "SObject",
        "VlocityRecordSObjectType": "%vlocity_namespace%__DRMapItem__c"
    },
    {
        "%vlocity_namespace%__DomainObjectAPIName__c": "json",
        "%vlocity_namespace%__DomainObjectCreationOrder__c": 1,
        "%vlocity_namespace%__DomainObjectFieldAPIName__c": "ViewAccount:viewAccountBlock:BillAfterDate",
        "%vlocity_namespace%__InterfaceFieldAPIName__c": "Account:Bill_After_Date__c",
        "%vlocity_namespace%__IsDisabled__c": false,
        "%vlocity_namespace%__IsRequiredForUpsert__c": false,
        "%vlocity_namespace%__MapId__c": "TestDRPrefillAccountInformationCustoma1Am0000001pr1eEAAItem23",
        "%vlocity_namespace%__UpsertKey__c": false,
        "Name": "TestDRPrefillAccountInformation",
        "VlocityDataPackType": "SObject",
        "VlocityRecordSObjectType": "%vlocity_namespace%__DRMapItem__c"
    },
    {
        "%vlocity_namespace%__DomainObjectAPIName__c": "json",
        "%vlocity_namespace%__DomainObjectCreationOrder__c": 1,
        "%vlocity_namespace%__DomainObjectFieldAPIName__c": "ViewAccount:viewAccountBlock:BillCycle",
        "%vlocity_namespace%__InterfaceFieldAPIName__c": "Account:Bill_Cycle__c",
        "%vlocity_namespace%__IsDisabled__c": false,
        "%vlocity_namespace%__IsRequiredForUpsert__c": false,
        "%vlocity_namespace%__MapId__c": "TestDRPrefillAccountInformationCustoma1Am0000001pr1eEAAItem24",
        "%vlocity_namespace%__UpsertKey__c": false,
        "Name": "TestDRPrefillAccountInformation",
        "VlocityDataPackType": "SObject",
        "VlocityRecordSObjectType": "%vlocity_namespace%__DRMapItem__c"
    },
    {
        "%vlocity_namespace%__DomainObjectAPIName__c": "json",
        "%vlocity_namespace%__DomainObjectCreationOrder__c": 1,
        "%vlocity_namespace%__DomainObjectFieldAPIName__c": "ViewAccount:viewAccountBlock:BillPrintIntercept",
        "%vlocity_namespace%__InterfaceFieldAPIName__c": "Account:Bill_Print_Intercept__c",
        "%vlocity_namespace%__IsDisabled__c": false,
        "%vlocity_namespace%__IsRequiredForUpsert__c": false,
        "%vlocity_namespace%__MapId__c": "TestDRPrefillAccountInformationCustoma1Am0000001pr1eEAAItem25",
        "%vlocity_namespace%__UpsertKey__c": false,
        "Name": "TestDRPrefillAccountInformation",
        "VlocityDataPackType": "SObject",
        "VlocityRecordSObjectType": "%vlocity_namespace%__DRMapItem__c"
    },
    {
        "%vlocity_namespace%__DomainObjectAPIName__c": "json",
        "%vlocity_namespace%__DomainObjectCreationOrder__c": 1,
        "%vlocity_namespace%__DomainObjectFieldAPIName__c": "ViewAccount:viewAccountBlock:CISDevision",
        "%vlocity_namespace%__InterfaceFieldAPIName__c": "Account:CIS_Division__c",
        "%vlocity_namespace%__IsDisabled__c": false,
        "%vlocity_namespace%__IsRequiredForUpsert__c": false,
        "%vlocity_namespace%__MapId__c": "TestDRPrefillAccountInformationCustoma1Am0000001pr1eEAAItem26",
        "%vlocity_namespace%__UpsertKey__c": false,
        "Name": "TestDRPrefillAccountInformation",
        "VlocityDataPackType": "SObject",
        "VlocityRecordSObjectType": "%vlocity_namespace%__DRMapItem__c"
    },
    {
        "%vlocity_namespace%__DomainObjectAPIName__c": "json",
        "%vlocity_namespace%__DomainObjectCreationOrder__c": 1,
        "%vlocity_namespace%__DomainObjectFieldAPIName__c": "ViewAccount:viewAccountBlock:Currency Code",
        "%vlocity_namespace%__InterfaceFieldAPIName__c": "Account:Currency_Code__c",
        "%vlocity_namespace%__IsDisabled__c": false,
        "%vlocity_namespace%__IsRequiredForUpsert__c": false,
        "%vlocity_namespace%__MapId__c": "TestDRPrefillAccountInformationCustoma1Am0000001pr1eEAAItem27",
        "%vlocity_namespace%__UpsertKey__c": false,
        "Name": "TestDRPrefillAccountInformation",
        "VlocityDataPackType": "SObject",
        "VlocityRecordSObjectType": "%vlocity_namespace%__DRMapItem__c"
    },
    {
        "%vlocity_namespace%__DomainObjectAPIName__c": "json",
        "%vlocity_namespace%__DomainObjectCreationOrder__c": 1,
        "%vlocity_namespace%__DomainObjectFieldAPIName__c": "ViewAccount:viewAccountBlock:CustomerClass",
        "%vlocity_namespace%__InterfaceFieldAPIName__c": "Account:Customer_Class__c",
        "%vlocity_namespace%__IsDisabled__c": false,
        "%vlocity_namespace%__IsRequiredForUpsert__c": false,
        "%vlocity_namespace%__MapId__c": "TestDRPrefillAccountInformationCustoma1Am0000001pr1eEAAItem28",
        "%vlocity_namespace%__UpsertKey__c": false,
        "Name": "TestDRPrefillAccountInformation",
        "VlocityDataPackType": "SObject",
        "VlocityRecordSObjectType": "%vlocity_namespace%__DRMapItem__c"
    },
    {
        "%vlocity_namespace%__DomainObjectAPIName__c": "json",
        "%vlocity_namespace%__DomainObjectCreationOrder__c": 1,
        "%vlocity_namespace%__DomainObjectFieldAPIName__c": "ViewAccount:viewAccountBlock:ManagementGroup",
        "%vlocity_namespace%__InterfaceFieldAPIName__c": "Account:Account_Management_Group__c",
        "%vlocity_namespace%__IsDisabled__c": false,
        "%vlocity_namespace%__IsRequiredForUpsert__c": false,
        "%vlocity_namespace%__MapId__c": "TestDRPrefillAccountInformationCustoma1Am0000001pr1eEAAItem22",
        "%vlocity_namespace%__UpsertKey__c": false,
        "Name": "TestDRPrefillAccountInformation",
        "VlocityDataPackType": "SObject",
        "VlocityRecordSObjectType": "%vlocity_namespace%__DRMapItem__c"
    },
    {
        "%vlocity_namespace%__DomainObjectAPIName__c": "json",
        "%vlocity_namespace%__DomainObjectCreationOrder__c": 1,
        "%vlocity_namespace%__DomainObjectFieldAPIName__c": "ViewAccount:viewAccountBlock:ProtectBillCycle",
        "%vlocity_namespace%__InterfaceFieldAPIName__c": "Account:Protect_Bill_Cycle__c",
        "%vlocity_namespace%__IsDisabled__c": false,
        "%vlocity_namespace%__IsRequiredForUpsert__c": false,
        "%vlocity_namespace%__MapId__c": "TestDRPrefillAccountInformationCustoma1Am0000001pr1eEAAItem33",
        "%vlocity_namespace%__UpsertKey__c": false,
        "Name": "TestDRPrefillAccountInformation",
        "VlocityDataPackType": "SObject",
        "VlocityRecordSObjectType": "%vlocity_namespace%__DRMapItem__c"
    },
    {
        "%vlocity_namespace%__DomainObjectAPIName__c": "json",
        "%vlocity_namespace%__DomainObjectCreationOrder__c": 1,
        "%vlocity_namespace%__DomainObjectFieldAPIName__c": "ViewAccount:viewAccountBlock:ProtectCisDevision",
        "%vlocity_namespace%__InterfaceFieldAPIName__c": "Account:Protect_CIS_Division__c",
        "%vlocity_namespace%__IsDisabled__c": false,
        "%vlocity_namespace%__IsRequiredForUpsert__c": false,
        "%vlocity_namespace%__MapId__c": "TestDRPrefillAccountInformationCustoma1Am0000001pr1eEAAItem34",
        "%vlocity_namespace%__UpsertKey__c": false,
        "Name": "TestDRPrefillAccountInformation",
        "VlocityDataPackType": "SObject",
        "VlocityRecordSObjectType": "%vlocity_namespace%__DRMapItem__c"
    },
    {
        "%vlocity_namespace%__DomainObjectAPIName__c": "json",
        "%vlocity_namespace%__DomainObjectCreationOrder__c": 1,
        "%vlocity_namespace%__DomainObjectFieldAPIName__c": "ViewAccount:viewAccountBlock:ProtectMailingPremise",
        "%vlocity_namespace%__InterfaceFieldAPIName__c": "Account:Protect_Mailing_Premise__c",
        "%vlocity_namespace%__IsDisabled__c": false,
        "%vlocity_namespace%__IsRequiredForUpsert__c": false,
        "%vlocity_namespace%__MapId__c": "TestDRPrefillAccountInformationCustoma1Am0000001pr1eEAAItem35",
        "%vlocity_namespace%__UpsertKey__c": false,
        "Name": "TestDRPrefillAccountInformation",
        "VlocityDataPackType": "SObject",
        "VlocityRecordSObjectType": "%vlocity_namespace%__DRMapItem__c"
    },
    {
        "%vlocity_namespace%__DomainObjectAPIName__c": "json",
        "%vlocity_namespace%__DomainObjectCreationOrder__c": 1,
        "%vlocity_namespace%__DomainObjectFieldAPIName__c": "ViewAccount:viewAccountBlock:ShippingAddress",
        "%vlocity_namespace%__IsDisabled__c": false,
        "%vlocity_namespace%__IsRequiredForUpsert__c": false,
        "%vlocity_namespace%__MapId__c": "TestDRPrefillAccountInformationCustoma1Am0000001pr1eEAAItem8",
        "%vlocity_namespace%__UpsertKey__c": false,
        "Name": "TestDRPrefillAccountInformation",
        "VlocityDataPackType": "SObject",
        "VlocityRecordSObjectType": "%vlocity_namespace%__DRMapItem__c"
    },
    {
        "%vlocity_namespace%__DomainObjectAPIName__c": "json",
        "%vlocity_namespace%__DomainObjectCreationOrder__c": 1,
        "%vlocity_namespace%__DomainObjectFieldAPIName__c": "ViewAccount:viewAccountBlock:accountComments",
        "%vlocity_namespace%__InterfaceFieldAPIName__c": "Account:Description",
        "%vlocity_namespace%__IsDisabled__c": false,
        "%vlocity_namespace%__IsRequiredForUpsert__c": false,
        "%vlocity_namespace%__MapId__c": "TestDRPrefillAccountInformationCustoma1Am0000001pr1eEAAItem30",
        "%vlocity_namespace%__UpsertKey__c": false,
        "Name": "TestDRPrefillAccountInformation",
        "VlocityDataPackType": "SObject",
        "VlocityRecordSObjectType": "%vlocity_namespace%__DRMapItem__c"
    },
    {
        "%vlocity_namespace%__DomainObjectAPIName__c": "json",
        "%vlocity_namespace%__DomainObjectCreationOrder__c": 1,
        "%vlocity_namespace%__DomainObjectFieldAPIName__c": "ViewAccount:viewAccountBlock:accountId",
        "%vlocity_namespace%__InterfaceFieldAPIName__c": "Account:Account_ID__c",
        "%vlocity_namespace%__IsDisabled__c": false,
        "%vlocity_namespace%__IsRequiredForUpsert__c": false,
        "%vlocity_namespace%__MapId__c": "TestDRPrefillAccountInformationCustoma1Am0000001pr1eEAAItem21",
        "%vlocity_namespace%__UpsertKey__c": false,
        "Name": "TestDRPrefillAccountInformation",
        "VlocityDataPackType": "SObject",
        "VlocityRecordSObjectType": "%vlocity_namespace%__DRMapItem__c"
    },
    {
        "%vlocity_namespace%__DomainObjectAPIName__c": "json",
        "%vlocity_namespace%__DomainObjectCreationOrder__c": 1,
        "%vlocity_namespace%__DomainObjectFieldAPIName__c": "ViewAccount:viewAccountBlock:comment",
        "%vlocity_namespace%__InterfaceFieldAPIName__c": "Account:Description",
        "%vlocity_namespace%__IsDisabled__c": false,
        "%vlocity_namespace%__IsRequiredForUpsert__c": false,
        "%vlocity_namespace%__MapId__c": "TestDRPrefillAccountInformationCustoma1Am0000001pr1eEAAItem29",
        "%vlocity_namespace%__UpsertKey__c": false,
        "Name": "TestDRPrefillAccountInformation",
        "VlocityDataPackType": "SObject",
        "VlocityRecordSObjectType": "%vlocity_namespace%__DRMapItem__c"
    },
    {
        "%vlocity_namespace%__DomainObjectAPIName__c": "json",
        "%vlocity_namespace%__DomainObjectCreationOrder__c": 1,
        "%vlocity_namespace%__DomainObjectFieldAPIName__c": "ViewAccount:viewAccountBlock:mailingPremiseId",
        "%vlocity_namespace%__InterfaceFieldAPIName__c": "Account:%vlocity_namespace%__PremisesId__c",
        "%vlocity_namespace%__IsDisabled__c": false,
        "%vlocity_namespace%__IsRequiredForUpsert__c": false,
        "%vlocity_namespace%__MapId__c": "TestDRPrefillAccountInformationCustoma1Am0000001pr1eEAAItem39",
        "%vlocity_namespace%__UpsertKey__c": false,
        "Name": "TestDRPrefillAccountInformation",
        "VlocityDataPackType": "SObject",
        "VlocityRecordSObjectType": "%vlocity_namespace%__DRMapItem__c"
    },
    {
        "%vlocity_namespace%__DomainObjectAPIName__c": "json",
        "%vlocity_namespace%__DomainObjectCreationOrder__c": 1,
        "%vlocity_namespace%__DomainObjectFieldAPIName__c": "ViewAccount:viewAccountBlock:setupDate",
        "%vlocity_namespace%__InterfaceFieldAPIName__c": "Account:Setup_Date__c",
        "%vlocity_namespace%__IsDisabled__c": false,
        "%vlocity_namespace%__IsRequiredForUpsert__c": false,
        "%vlocity_namespace%__MapId__c": "TestDRPrefillAccountInformationCustoma1Am0000001pr1eEAAItem38",
        "%vlocity_namespace%__UpsertKey__c": false,
        "Name": "TestDRPrefillAccountInformation",
        "VlocityDataPackType": "SObject",
        "VlocityRecordSObjectType": "%vlocity_namespace%__DRMapItem__c"
    },
    {
        "%vlocity_namespace%__DomainObjectAPIName__c": "json",
        "%vlocity_namespace%__DomainObjectCreationOrder__c": 1,
        "%vlocity_namespace%__DomainObjectFieldAPIName__c": "ViewAccount:viewAccountDetails:AccessGroup",
        "%vlocity_namespace%__IsDisabled__c": false,
        "%vlocity_namespace%__IsRequiredForUpsert__c": false,
        "%vlocity_namespace%__MapId__c": "TestDRPrefillAccountInformationCustoma1Am0000001pr1eEAAItem6",
        "%vlocity_namespace%__UpsertKey__c": false,
        "Name": "TestDRPrefillAccountInformation",
        "VlocityDataPackType": "SObject",
        "VlocityRecordSObjectType": "%vlocity_namespace%__DRMapItem__c"
    },
    {
        "%vlocity_namespace%__DomainObjectAPIName__c": "json",
        "%vlocity_namespace%__DomainObjectCreationOrder__c": 1,
        "%vlocity_namespace%__DomainObjectFieldAPIName__c": "ViewAccount:viewAccountDetails:BillAfterDate",
        "%vlocity_namespace%__IsDisabled__c": false,
        "%vlocity_namespace%__IsRequiredForUpsert__c": false,
        "%vlocity_namespace%__MapId__c": "TestDRPrefillAccountInformationCustoma1Am0000001pr1eEAAItem4",
        "%vlocity_namespace%__UpsertKey__c": false,
        "Name": "TestDRPrefillAccountInformation",
        "VlocityDataPackType": "SObject",
        "VlocityRecordSObjectType": "%vlocity_namespace%__DRMapItem__c"
    },
    {
        "%vlocity_namespace%__DomainObjectAPIName__c": "json",
        "%vlocity_namespace%__DomainObjectCreationOrder__c": 1,
        "%vlocity_namespace%__DomainObjectFieldAPIName__c": "ViewAccount:viewAccountDetails:BillPrintIntercept",
        "%vlocity_namespace%__IsDisabled__c": false,
        "%vlocity_namespace%__IsRequiredForUpsert__c": false,
        "%vlocity_namespace%__MapId__c": "TestDRPrefillAccountInformationCustoma1Am0000001pr1eEAAItem3",
        "%vlocity_namespace%__UpsertKey__c": false,
        "Name": "TestDRPrefillAccountInformation",
        "VlocityDataPackType": "SObject",
        "VlocityRecordSObjectType": "%vlocity_namespace%__DRMapItem__c"
    },
    {
        "%vlocity_namespace%__DomainObjectAPIName__c": "json",
        "%vlocity_namespace%__DomainObjectCreationOrder__c": 1,
        "%vlocity_namespace%__DomainObjectFieldAPIName__c": "ViewAccount:viewAccountDetails:Currency Code",
        "%vlocity_namespace%__IsDisabled__c": false,
        "%vlocity_namespace%__IsRequiredForUpsert__c": false,
        "%vlocity_namespace%__MapId__c": "TestDRPrefillAccountInformationCustoma1Am0000001pr1eEAAItem7",
        "%vlocity_namespace%__UpsertKey__c": false,
        "Name": "TestDRPrefillAccountInformation",
        "VlocityDataPackType": "SObject",
        "VlocityRecordSObjectType": "%vlocity_namespace%__DRMapItem__c"
    },
    {
        "%vlocity_namespace%__DomainObjectAPIName__c": "json",
        "%vlocity_namespace%__DomainObjectCreationOrder__c": 1,
        "%vlocity_namespace%__DomainObjectFieldAPIName__c": "ViewAccount:viewAccountDetails:ProtectCisDevision",
        "%vlocity_namespace%__IsDisabled__c": false,
        "%vlocity_namespace%__IsRequiredForUpsert__c": false,
        "%vlocity_namespace%__MapId__c": "TestDRPrefillAccountInformationCustoma1Am0000001pr1eEAAItem5",
        "%vlocity_namespace%__UpsertKey__c": false,
        "Name": "TestDRPrefillAccountInformation",
        "VlocityDataPackType": "SObject",
        "VlocityRecordSObjectType": "%vlocity_namespace%__DRMapItem__c"
    },
    {
        "%vlocity_namespace%__DomainObjectAPIName__c": "json",
        "%vlocity_namespace%__DomainObjectCreationOrder__c": 1,
        "%vlocity_namespace%__DomainObjectFieldAPIName__c": "ViewAccount:viewAccountDetails:ProtectMailingPremise",
        "%vlocity_namespace%__IsDisabled__c": false,
        "%vlocity_namespace%__IsRequiredForUpsert__c": false,
        "%vlocity_namespace%__MapId__c": "TestDRPrefillAccountInformationCustoma1Am0000001pr1eEAAItem2",
        "%vlocity_namespace%__UpsertKey__c": false,
        "Name": "TestDRPrefillAccountInformation",
        "VlocityDataPackType": "SObject",
        "VlocityRecordSObjectType": "%vlocity_namespace%__DRMapItem__c"
    },
    {
        "%vlocity_namespace%__DomainObjectAPIName__c": "json",
        "%vlocity_namespace%__DomainObjectCreationOrder__c": 1,
        "%vlocity_namespace%__DomainObjectFieldAPIName__c": "id",
        "%vlocity_namespace%__IsDisabled__c": false,
        "%vlocity_namespace%__IsRequiredForUpsert__c": false,
        "%vlocity_namespace%__MapId__c": "TestDRPrefillAccountInformationCustoma1Am0000001pr1eEAAItem12",
        "%vlocity_namespace%__UpsertKey__c": false,
        "Name": "TestDRPrefillAccountInformation",
        "VlocityDataPackType": "SObject",
        "VlocityRecordSObjectType": "%vlocity_namespace%__DRMapItem__c"
    },
    {
        "%vlocity_namespace%__DomainObjectAPIName__c": "json",
        "%vlocity_namespace%__DomainObjectCreationOrder__c": 1,
        "%vlocity_namespace%__DomainObjectFieldAPIName__c": "layout",
        "%vlocity_namespace%__IsDisabled__c": false,
        "%vlocity_namespace%__IsRequiredForUpsert__c": false,
        "%vlocity_namespace%__MapId__c": "TestDRPrefillAccountInformationCustoma1Am0000001pr1eEAAItem13",
        "%vlocity_namespace%__UpsertKey__c": false,
        "Name": "TestDRPrefillAccountInformation",
        "VlocityDataPackType": "SObject",
        "VlocityRecordSObjectType": "%vlocity_namespace%__DRMapItem__c"
    },
    {
        "%vlocity_namespace%__DomainObjectAPIName__c": "json",
        "%vlocity_namespace%__DomainObjectCreationOrder__c": 1,
        "%vlocity_namespace%__DomainObjectFieldAPIName__c": "timeStamp",
        "%vlocity_namespace%__IsDisabled__c": false,
        "%vlocity_namespace%__IsRequiredForUpsert__c": false,
        "%vlocity_namespace%__MapId__c": "TestDRPrefillAccountInformationCustoma1Am0000001pr1eEAAItem19",
        "%vlocity_namespace%__UpsertKey__c": false,
        "Name": "TestDRPrefillAccountInformation",
        "VlocityDataPackType": "SObject",
        "VlocityRecordSObjectType": "%vlocity_namespace%__DRMapItem__c"
    },
    {
        "%vlocity_namespace%__DomainObjectAPIName__c": "json",
        "%vlocity_namespace%__DomainObjectCreationOrder__c": 1,
        "%vlocity_namespace%__DomainObjectFieldAPIName__c": "userCurrencyCode",
        "%vlocity_namespace%__IsDisabled__c": false,
        "%vlocity_namespace%__IsRequiredForUpsert__c": false,
        "%vlocity_namespace%__MapId__c": "TestDRPrefillAccountInformationCustoma1Am0000001pr1eEAAItem14",
        "%vlocity_namespace%__UpsertKey__c": false,
        "Name": "TestDRPrefillAccountInformation",
        "VlocityDataPackType": "SObject",
        "VlocityRecordSObjectType": "%vlocity_namespace%__DRMapItem__c"
    },
    {
        "%vlocity_namespace%__DomainObjectAPIName__c": "json",
        "%vlocity_namespace%__DomainObjectCreationOrder__c": 1,
        "%vlocity_namespace%__DomainObjectFieldAPIName__c": "userId",
        "%vlocity_namespace%__IsDisabled__c": false,
        "%vlocity_namespace%__IsRequiredForUpsert__c": false,
        "%vlocity_namespace%__MapId__c": "TestDRPrefillAccountInformationCustoma1Am0000001pr1eEAAItem18",
        "%vlocity_namespace%__UpsertKey__c": false,
        "Name": "TestDRPrefillAccountInformation",
        "VlocityDataPackType": "SObject",
        "VlocityRecordSObjectType": "%vlocity_namespace%__DRMapItem__c"
    },
    {
        "%vlocity_namespace%__DomainObjectAPIName__c": "json",
        "%vlocity_namespace%__DomainObjectCreationOrder__c": 1,
        "%vlocity_namespace%__DomainObjectFieldAPIName__c": "userName",
        "%vlocity_namespace%__IsDisabled__c": false,
        "%vlocity_namespace%__IsRequiredForUpsert__c": false,
        "%vlocity_namespace%__MapId__c": "TestDRPrefillAccountInformationCustoma1Am0000001pr1eEAAItem17",
        "%vlocity_namespace%__UpsertKey__c": false,
        "Name": "TestDRPrefillAccountInformation",
        "VlocityDataPackType": "SObject",
        "VlocityRecordSObjectType": "%vlocity_namespace%__DRMapItem__c"
    },
    {
        "%vlocity_namespace%__DomainObjectAPIName__c": "json",
        "%vlocity_namespace%__DomainObjectCreationOrder__c": 1,
        "%vlocity_namespace%__DomainObjectFieldAPIName__c": "userProfile",
        "%vlocity_namespace%__IsDisabled__c": false,
        "%vlocity_namespace%__IsRequiredForUpsert__c": false,
        "%vlocity_namespace%__MapId__c": "TestDRPrefillAccountInformationCustoma1Am0000001pr1eEAAItem16",
        "%vlocity_namespace%__UpsertKey__c": false,
        "Name": "TestDRPrefillAccountInformation",
        "VlocityDataPackType": "SObject",
        "VlocityRecordSObjectType": "%vlocity_namespace%__DRMapItem__c"
    },
    {
        "%vlocity_namespace%__DomainObjectAPIName__c": "json",
        "%vlocity_namespace%__DomainObjectCreationOrder__c": 1,
        "%vlocity_namespace%__DomainObjectFieldAPIName__c": "userTimeZone",
        "%vlocity_namespace%__IsDisabled__c": false,
        "%vlocity_namespace%__IsRequiredForUpsert__c": false,
        "%vlocity_namespace%__MapId__c": "TestDRPrefillAccountInformationCustoma1Am0000001pr1eEAAItem15",
        "%vlocity_namespace%__UpsertKey__c": false,
        "Name": "TestDRPrefillAccountInformation",
        "VlocityDataPackType": "SObject",
        "VlocityRecordSObjectType": "%vlocity_namespace%__DRMapItem__c"
    },
    {
        "%vlocity_namespace%__DomainObjectAPIName__c": "json",
        "%vlocity_namespace%__DomainObjectCreationOrder__c": 1,
        "%vlocity_namespace%__DomainObjectFieldAPIName__c": "vlcTimeTracking:Account Script Constant",
        "%vlocity_namespace%__IsDisabled__c": false,
        "%vlocity_namespace%__IsRequiredForUpsert__c": false,
        "%vlocity_namespace%__MapId__c": "TestDRPrefillAccountInformationCustoma1Am0000001pr1eEAAItem10",
        "%vlocity_namespace%__UpsertKey__c": false,
        "Name": "TestDRPrefillAccountInformation",
        "VlocityDataPackType": "SObject",
        "VlocityRecordSObjectType": "%vlocity_namespace%__DRMapItem__c"
    },
    {
        "%vlocity_namespace%__DomainObjectAPIName__c": "json",
        "%vlocity_namespace%__DomainObjectCreationOrder__c": 1,
        "%vlocity_namespace%__DomainObjectFieldAPIName__c": "vlcTimeTracking:OmniScriptSessionToken",
        "%vlocity_namespace%__IsDisabled__c": false,
        "%vlocity_namespace%__IsRequiredForUpsert__c": false,
        "%vlocity_namespace%__MapId__c": "TestDRPrefillAccountInformationCustoma1Am0000001pr1eEAAItem11",
        "%vlocity_namespace%__UpsertKey__c": false,
        "Name": "TestDRPrefillAccountInformation",
        "VlocityDataPackType": "SObject",
        "VlocityRecordSObjectType": "%vlocity_namespace%__DRMapItem__c"
    },
    {
        "%vlocity_namespace%__DomainObjectAPIName__c": "json",
        "%vlocity_namespace%__DomainObjectCreationOrder__c": 1,
        "%vlocity_namespace%__DomainObjectFieldAPIName__c": "vlcTimeTracking:ViewUpdateAccountInfo",
        "%vlocity_namespace%__IsDisabled__c": false,
        "%vlocity_namespace%__IsRequiredForUpsert__c": false,
        "%vlocity_namespace%__MapId__c": "TestDRPrefillAccountInformationCustoma1Am0000001pr1eEAAItem9",
        "%vlocity_namespace%__UpsertKey__c": false,
        "Name": "TestDRPrefillAccountInformation",
        "VlocityDataPackType": "SObject",
        "VlocityRecordSObjectType": "%vlocity_namespace%__DRMapItem__c"
    }
]