{
    "ContextId": "001m000000crJs7",
    "greenoptions": 50,
    "id": "a2Fm0000000KwksEAC",
    "layout": "lightning",
    "saRate": {
        "ServiceAgreement": null,
        "baseRateSection": {
            "changeBaseRate": {
                "alertMessages": false,
                "rateSchedule": null
            },
            "currentRate": null
        },
        "buttonBlock": null,
        "comments": {
            "Comments": null
        },
        "greenOption": null,
        "saRateEnrollment": {
            "badgeNumber": null,
            "meterConfiguration": null,
            "saId": null,
            "saInformation": "SA1234",
            "serviceAddress": null
        },
        "smartRateBlock": null,
        "testSAId": 10
    },
    "smartRates": 40,
    "timeStamp": "2018-06-01T09:40:53.471Z",
    "userCurrencyCode": "USD",
    "userId": "005m0000002yCkAAAU",
    "userName": "manisha.naik@pge.com.cc2020.dev",
    "userProfile": "System Administrator",
    "userTimeZone": -420,
    "vlcPersistentComponent": {
    },
    "vlcTimeTracking": {
        "OmniScriptSessionToken": "2109cc21-a6d2-4ce1-a14d-e8d8946555c0",
        "SADataRaptorExtractAction": 2511,
        "accountScriptConstant": 136
    }
}