{
    "ContextId": null,
    "CreateContact": {
        "FirstName": null,
        "LastName": null
    },
    "DRId_Account": "0011I00000DTLkxQAH",
    "LocateProperty": {
        "BillingCity": null,
        "BillingCountry": null,
        "BillingState": null,
        "BillingStreet": null,
        "PostalCode": null,
        "ServiceAvailable": null
    },
    "timeStamp": null,
    "userId": null,
    "userName": null,
    "userProfile": null,
    "vlcPersistentComponent": {
    },
    "vlcTimeTracking": {
        "CreateContact": null,
        "DoneAction1": null,
        "LocateProperty": null,
        "VPLCreateAccount": null,
        "VPLCreateContact": null
    }
}