{
    "AccountContact": {
        "AccountId": null,
        "AllowPreference": false,
        "Billaddresssource": null,
        "Billformat": null,
        "Billroutetype": null,
        "Financiallyresponsible": false,
        "MailingAddressBlock": {
            "MailingCity": null,
            "MailingCountry": null,
            "MailingPostalCode": null,
            "MailingState": null,
            "MailingStreet": null
        },
        "Maincustomer": false,
        "PersonId": null,
        "PrefixSuffix": null,
        "Prefixsuffixname": null,
        "Receivescollectionandoverduenotices": false,
        "Receivescopyofbill": false,
        "Relationshiptype": null
    },
    "AccountContactRelationship": {
        "AccountId": null,
        "AllowPreference": false,
        "Billaddresssource": null,
        "Billformat": null,
        "Billroutetype": null,
        "Financiallyresponsible": false,
        "MailingAddressBlock": {
            "MailingCity": null,
            "MailingCountry": null,
            "MailingPostalCode": null,
            "MailingState": null,
            "MailingStreet": null
        },
        "Maincustomer": false,
        "PersonId": null,
        "PrefixSuffix": null,
        "Prefixsuffixname": null,
        "Receivescollectionandoverduenotices": false,
        "Receivescopyofbill": false,
        "Relationshiptype": null
    },
    "AcrId": "07km0000001mKoWAAU",
    "Allcontact": [
        {
            "Accountid": "Global Media",
            "Allowpreference": "a",
            "Billaddresssource": "a",
            "Billformat": "P",
            "Billroutetype": "Bill Route Type 1",
            "Financiallyresponsible": true,
            "MailingAddress": "150 Chestnut Street Toronto Ontario Canada L4B 1Y3",
            "Maincustomer": true,
            "PrefixSuffix": "MR",
            "Prefixsuffixname": "JOHN AMOS",
            "Receivescollectionandoverduenotices": true,
            "Receivescopyofbill": true,
            "Relationshiptype": "Weak",
            "personIdLookup": "6786867"
        },
        {
            "Accountid": "Global Media",
            "Financiallyresponsible": false,
            "Maincustomer": true,
            "Prefixsuffixname": "Jessy Amos",
            "Receivescollectionandoverduenotices": false,
            "Receivescopyofbill": false,
            "personIdLookup": "1234"
        }
    ],
    "ContactId": "003m000000uSfpyAAC",
    "ContextId": "001m000000crJx8AAE",
    "id": "a2Fm0000000bqchEAA",
    "layout": "lightning",
    "timeStamp": "2018-06-22T08:42:08.778Z",
    "userCurrencyCode": "USD",
    "userId": "005m0000002yCkAAAU",
    "userName": "manisha.naik@pge.com.cc2020.dev",
    "userProfile": "System Administrator",
    "userTimeZone": -420,
    "vlcPersistentComponent": {
    },
    "vlcTimeTracking": {
        "AccountContactRelationshipDataRaptorExtract": 2661,
        "AccountContactRelationshipScriptConstant": 156,
        "OmniScriptSessionToken": "267449ce-e989-49e7-b2ae-b3d79cbc6fb2"
    }
}