[
    {
        "%vlocity_namespace%__DomainObjectAPIName__c": "Case",
        "%vlocity_namespace%__DomainObjectCreationOrder__c": 1,
        "%vlocity_namespace%__DomainObjectFieldAPIName__c": "%vlocity_namespace%__PremisesId__c",
        "%vlocity_namespace%__InterfaceFieldAPIName__c": "ViewCase:CaseDetails:Premise",
        "%vlocity_namespace%__IsDisabled__c": false,
        "%vlocity_namespace%__IsRequiredForUpsert__c": false,
        "%vlocity_namespace%__MapId__c": "DR-InsertCaseRecordCustom2006",
        "%vlocity_namespace%__UpsertKey__c": false,
        "Name": "DR-InsertCaseRecord",
        "VlocityDataPackType": "SObject",
        "VlocityRecordSObjectType": "%vlocity_namespace%__DRMapItem__c"
    },
    {
        "%vlocity_namespace%__DomainObjectAPIName__c": "Case",
        "%vlocity_namespace%__DomainObjectCreationOrder__c": 1,
        "%vlocity_namespace%__DomainObjectFieldAPIName__c": "AccountId",
        "%vlocity_namespace%__InterfaceFieldAPIName__c": "ViewCase:CaseDetails:Account",
        "%vlocity_namespace%__IsDisabled__c": false,
        "%vlocity_namespace%__IsRequiredForUpsert__c": false,
        "%vlocity_namespace%__MapId__c": "DR-InsertCaseRecordCustom2050",
        "%vlocity_namespace%__UpsertKey__c": false,
        "Name": "DR-InsertCaseRecord",
        "VlocityDataPackType": "SObject",
        "VlocityRecordSObjectType": "%vlocity_namespace%__DRMapItem__c"
    },
    {
        "%vlocity_namespace%__DomainObjectAPIName__c": "Case",
        "%vlocity_namespace%__DomainObjectCreationOrder__c": 1,
        "%vlocity_namespace%__DomainObjectFieldAPIName__c": "ClosedDate",
        "%vlocity_namespace%__InterfaceFieldAPIName__c": "ViewCase:CaseInfoBlock:ClosedDate",
        "%vlocity_namespace%__IsDisabled__c": false,
        "%vlocity_namespace%__IsRequiredForUpsert__c": false,
        "%vlocity_namespace%__MapId__c": "DR-InsertCaseRecordCustom6027",
        "%vlocity_namespace%__UpsertKey__c": false,
        "Name": "DR-InsertCaseRecord",
        "VlocityDataPackType": "SObject",
        "VlocityRecordSObjectType": "%vlocity_namespace%__DRMapItem__c"
    },
    {
        "%vlocity_namespace%__DomainObjectAPIName__c": "Case",
        "%vlocity_namespace%__DomainObjectCreationOrder__c": 1,
        "%vlocity_namespace%__DomainObjectFieldAPIName__c": "ContactId",
        "%vlocity_namespace%__InterfaceFieldAPIName__c": "ViewCase:CaseDetails:Person",
        "%vlocity_namespace%__IsDisabled__c": false,
        "%vlocity_namespace%__IsRequiredForUpsert__c": false,
        "%vlocity_namespace%__MapId__c": "DR-InsertCaseRecordCustom3980",
        "%vlocity_namespace%__UpsertKey__c": false,
        "Name": "DR-InsertCaseRecord",
        "VlocityDataPackType": "SObject",
        "VlocityRecordSObjectType": "%vlocity_namespace%__DRMapItem__c"
    },
    {
        "%vlocity_namespace%__DomainObjectAPIName__c": "Case",
        "%vlocity_namespace%__DomainObjectCreationOrder__c": 1,
        "%vlocity_namespace%__DomainObjectFieldAPIName__c": "ContactPerson__c",
        "%vlocity_namespace%__InterfaceFieldAPIName__c": "ViewCase:ContactInformation:ContactPerson",
        "%vlocity_namespace%__IsDisabled__c": false,
        "%vlocity_namespace%__IsRequiredForUpsert__c": false,
        "%vlocity_namespace%__MapId__c": "DR-InsertCaseRecordCustom4266",
        "%vlocity_namespace%__UpsertKey__c": false,
        "Name": "DR-InsertCaseRecord",
        "VlocityDataPackType": "SObject",
        "VlocityRecordSObjectType": "%vlocity_namespace%__DRMapItem__c"
    },
    {
        "%vlocity_namespace%__DomainObjectAPIName__c": "Case",
        "%vlocity_namespace%__DomainObjectCreationOrder__c": 1,
        "%vlocity_namespace%__DomainObjectFieldAPIName__c": "CreatedById",
        "%vlocity_namespace%__InterfaceFieldAPIName__c": "ViewCase:CaseDetails:ResponsibleUser",
        "%vlocity_namespace%__IsDisabled__c": false,
        "%vlocity_namespace%__IsRequiredForUpsert__c": false,
        "%vlocity_namespace%__MapId__c": "DR-InsertCaseRecordCustom2476",
        "%vlocity_namespace%__UpsertKey__c": false,
        "Name": "DR-InsertCaseRecord",
        "VlocityDataPackType": "SObject",
        "VlocityRecordSObjectType": "%vlocity_namespace%__DRMapItem__c"
    },
    {
        "%vlocity_namespace%__DomainObjectAPIName__c": "Case",
        "%vlocity_namespace%__DomainObjectCreationOrder__c": 1,
        "%vlocity_namespace%__DomainObjectFieldAPIName__c": "CreatedDate",
        "%vlocity_namespace%__InterfaceFieldAPIName__c": "ViewCase:CaseInfoBlock:OpenedDate",
        "%vlocity_namespace%__IsDisabled__c": false,
        "%vlocity_namespace%__IsRequiredForUpsert__c": false,
        "%vlocity_namespace%__MapId__c": "DR-InsertCaseRecordCustom3744",
        "%vlocity_namespace%__UpsertKey__c": false,
        "Name": "DR-InsertCaseRecord",
        "VlocityDataPackType": "SObject",
        "VlocityRecordSObjectType": "%vlocity_namespace%__DRMapItem__c"
    },
    {
        "%vlocity_namespace%__DomainObjectAPIName__c": "Case",
        "%vlocity_namespace%__DomainObjectCreationOrder__c": 1,
        "%vlocity_namespace%__DomainObjectFieldAPIName__c": "Description",
        "%vlocity_namespace%__InterfaceFieldAPIName__c": "ViewCase:CaseDetails:CaseComment",
        "%vlocity_namespace%__IsDisabled__c": false,
        "%vlocity_namespace%__IsRequiredForUpsert__c": false,
        "%vlocity_namespace%__MapId__c": "DR-InsertCaseRecordCustom7329",
        "%vlocity_namespace%__UpsertKey__c": false,
        "Name": "DR-InsertCaseRecord",
        "VlocityDataPackType": "SObject",
        "VlocityRecordSObjectType": "%vlocity_namespace%__DRMapItem__c"
    },
    {
        "%vlocity_namespace%__ConfigurationValue__c": "FAKEMAPPING",
        "%vlocity_namespace%__DomainObjectAPIName__c": "Case",
        "%vlocity_namespace%__DomainObjectCreationOrder__c": 1,
        "%vlocity_namespace%__DomainObjectFieldAPIName__c": "Id",
        "%vlocity_namespace%__FilterOperator__c": "=",
        "%vlocity_namespace%__IsDisabled__c": true,
        "%vlocity_namespace%__IsRequiredForUpsert__c": false,
        "%vlocity_namespace%__MapId__c": "DR-InsertCaseRecordCustom5386",
        "%vlocity_namespace%__UpsertKey__c": false,
        "Name": "DR-InsertCaseRecord",
        "VlocityDataPackType": "SObject",
        "VlocityRecordSObjectType": "%vlocity_namespace%__DRMapItem__c"
    },
    {
        "%vlocity_namespace%__DomainObjectAPIName__c": "Case",
        "%vlocity_namespace%__DomainObjectCreationOrder__c": 1,
        "%vlocity_namespace%__DomainObjectFieldAPIName__c": "Status",
        "%vlocity_namespace%__InterfaceFieldAPIName__c": "ViewCase:CaseInfoBlock:CaseStatus",
        "%vlocity_namespace%__IsDisabled__c": false,
        "%vlocity_namespace%__IsRequiredForUpsert__c": false,
        "%vlocity_namespace%__MapId__c": "DR-InsertCaseRecordCustom3188",
        "%vlocity_namespace%__UpsertKey__c": false,
        "Name": "DR-InsertCaseRecord",
        "VlocityDataPackType": "SObject",
        "VlocityRecordSObjectType": "%vlocity_namespace%__DRMapItem__c"
    },
    {
        "%vlocity_namespace%__DomainObjectAPIName__c": "Case",
        "%vlocity_namespace%__DomainObjectCreationOrder__c": 1,
        "%vlocity_namespace%__DomainObjectFieldAPIName__c": "Type",
        "%vlocity_namespace%__InterfaceFieldAPIName__c": "ViewCase:CaseInfoBlock:CaseType",
        "%vlocity_namespace%__IsDisabled__c": false,
        "%vlocity_namespace%__IsRequiredForUpsert__c": false,
        "%vlocity_namespace%__MapId__c": "DR-InsertCaseRecordCustom5428",
        "%vlocity_namespace%__UpsertKey__c": false,
        "Name": "DR-InsertCaseRecord",
        "VlocityDataPackType": "SObject",
        "VlocityRecordSObjectType": "%vlocity_namespace%__DRMapItem__c"
    }
]