{
    "ContextId": null,
    "connectCheck": {
        "softCreditCheck": null,
        "warningMessage": null
    },
    "customerInformation": {
        "createCustomerManuallyBlock": {
            "emailAddress": null,
            "firstName": null,
            "lastName": null,
            "middleName": null,
            "primaryPhoneNumber": null,
            "suffix": null
        },
        "customerAlreadyPresentBlock": {
            "alertMessage": null,
            "updateRequired": null
        },
        "existingCustomerTypeAhead-Block": {
            "existingCustomerTypeAhead": null
        },
        "noExistingCustomer": null,
        "proceedBlock": {
            "proceedCreateCustomerFlow": null
        },
        "proceedSelectedCustomerBlock": {
            "proceedSelectedCustomer": null
        }
    },
    "customerType": {
        "selectCustomerType": null
    },
    "editCustomer": {
        "ContactFirstName": null,
        "editAccountRelationshipType": null,
        "editCellphone": null,
        "editEmailAddress": null,
        "editFinanciallyResponsible": null,
        "editID": null,
        "editLastName": null,
        "editMiddleName": null,
        "editPhoneNumber": null,
        "editPhoneType": null,
        "editSuffix": null
    },
    "timeStamp": null,
    "userId": null,
    "userName": null,
    "userProfile": null,
    "userTimeZone": null,
    "vlcPersistentComponent": {
    },
    "vlcTimeTracking": {
        "connectCheck": null,
        "customerDetailsDataRaptorExtract": null,
        "customerInformation": null,
        "customerScriptConstant": null,
        "customerType": null,
        "editCustomer": null
    }
}