{
    "AddPassword": {
        "Block1": {
            "AccountPassword": null,
            "SecurityAnswer2": null,
            "SecurityQuestion2": null
        }
    },
    "ContextId": "",
    "Update Password": {
        "Block2": {
            "SecurityAnswer": null
        },
        "testFormula": null
    },
    "id": "a2Fm0000000KyCnEAK",
    "layout": "lightning",
    "timeStamp": "2018-06-06T06:23:57.425Z",
    "userCurrencyCode": "USD",
    "userId": "005m0000002yCkAAAU",
    "userName": "manisha.naik@pge.com.cc2020.dev",
    "userProfile": "System Administrator",
    "userTimeZone": -420,
    "vlcPersistentComponent": {
    },
    "vlcTimeTracking": {
        "DataRaptorExtractAction1": 919,
        "OmniScriptSessionToken": "3cd617ec-552f-4e39-a361-30966fffc82c",
        "SetValues1": 19
    }
}