{
    "AddPassword": {
        "Block1": {
            "AccountPassword": "saurabh",
            "SecurityAnswer": "jhajha",
            "SecurityQuestion": "The city I was born in?"
        }
    },
    "ContextId": "001m000000huqqxAAA",
    "Id": "001m000000huqqxAAA",
    "id": "a2Fm0000000KyCnEAK",
    "layout": "lightning",
    "timeStamp": "2018-06-06T08:56:03.604Z",
    "userCurrencyCode": "USD",
    "userId": "005m0000002xAkGAAU",
    "userName": "gauri2.gaikwad2@pge.com.cc2020.dev",
    "userProfile": "System Administrator",
    "userTimeZone": -420,
    "vlcPersistentComponent": {
    },
    "vlcTimeTracking": {
        "DataRaptorExtractAction1": 1223,
        "OmniScriptSessionToken": "d72cf9cd-2bb5-4dae-9c91-b15f96acac66",
        "SetValues1": 52
    }
}