{
    "AccountName": "Hilton - London",
    "ContextId": "00141000003Rw75",
    "Id": "00141000003Rw75AAC",
    "Name": [
        "Geoff Grimes"
    ],
    "SelectContact": {
        "ContactList": [
            {
                "Authorized": false,
                "Birthdate": "1978-03-17",
                "Email": "geoff.grimes@gmail.com",
                "FirstName": "Geoff",
                "Id": "00341000002iRYmAAM",
                "LastName": "Grimes",
                "Name": "Geoff Grimes",
                "Phone": "112 720 9735",
                "Title": "Sales Associate",
                "vlcSelected": true
            }
        ],
        "IsContactSelected": 1
    },
    "UpdateContact": {
        "Authorized": false,
        "Birthdate": "1978-03-17T05:00:00.000Z",
        "Email": "geoff.grimes@gmail.com",
        "FirstName": "Geoff",
        "LastName": "Grimes",
        "Phone": null,
        "Title": "Sales Associate",
        "UpdateContactBlock": null
    },
    "id": "a1I41000001PikSEAS",
    "layout": "lightning",
    "timeStamp": "2017-03-20T14:33:07.013Z",
    "userId": "00541000000lbpqAAA",
    "userName": "dlq@cmt-vdo.vpl",
    "userProfile": "System Administrator",
    "vlcPersistentComponent": {
    }
}